{
    "swagger": "2.0",
    "info": {
        "title": "User Game API",
        "version": "1.1.0",
        "description": "Simple game api that store user account, biodata, and game histories"
    },
    "schemes": [
        "http",
        "https"
    ],
    "securityDefinitions": {
        "jwt": {
            "type": "apiKey",
            "name": "Authorization",
            "in": "header",
            "description": "Example: Bearer [JWT TOKEN]"
        }
    },
    "consumes": [
        "application/json",
        "multipart/form-data"
    ],
    "produces": [
        "application/json"
    ],
    "basePath": "/api/v1",
    "contact": {
        "name": "Muhammad Naufal Kateni",
        "email": "naufalkateni2001@gmail.com"
    },
    "tags": [
        {
            "name": "Authentication",
            "description": "Authentication"
        },
        {
            "name": "User Game",
            "description": "User Account Information"
        },
        {
            "name": "User Game Biodata",
            "description": "User Biodata In Game"
        },
        {
            "name": "User Game History",
            "description": "History Of Game Played By User"
        }
    ],
    "paths": {
        "/register": {
            "post": {
                "summary": "Register User",
                "operationId": "register",
                "responses": {
                    "200": {
                        "description": "Register Success",
                        "schema": {
                            "$ref": "#/definitions/registerResponse"
                        }
                    },
                    "400": {
                        "description": "Bad request",
                        "schema": {
                            "$ref": "#/definitions/badRequestResponse"
                        }
                    },
                    "500": {
                        "description": "Internal server error",
                        "schema": {
                            "$ref": "#/definitions/generalErrorResponse"
                        }
                    }
                },
                "parameters": [
                    {
                        "name": "body",
                        "in": "body",
                        "description": "Login user",
                        "required": true,
                        "schema": {
                            "$ref": "#/definitions/postUserGamesRequest"
                        }
                    }
                ],
                "tags": [
                    "Authentication"
                ]
            }
        },
        "/login": {
            "post": {
                "summary": "User login",
                "operationId": "login",
                "responses": {
                    "200": {
                        "description": "Login Success",
                        "schema": {
                            "$ref": "#/definitions/loginResponse"
                        }
                    },
                    "400": {
                        "description": "Bad request",
                        "schema": {
                            "$ref": "#/definitions/badRequestResponse"
                        }
                    },
                    "500": {
                        "description": "Internal server error",
                        "schema": {
                            "$ref": "#/definitions/generalErrorResponse"
                        }
                    }
                },
                "parameters": [
                    {
                        "name": "body",
                        "in": "body",
                        "description": "Login user",
                        "required": true,
                        "schema": {
                            "$ref": "#/definitions/postUserGamesRequest"
                        }
                    }
                ],
                "tags": [
                    "Authentication"
                ]
            }
        },
        "/user_games": {
            "get": {
                "summary": "Get all user games",
                "operationId": "GetUserGames",
                "responses": {
                    "200": {
                        "description": "Returns a list of user games",
                        "schema": {
                            "$ref": "#/definitions/getUserGamesResponse"
                        }
                    },
                    "500": {
                        "description": "Internal server error",
                        "schema": {
                            "$ref": "#/definitions/generalErrorResponse"
                        }
                    }
                },
                "tags": [
                    "User Game"
                ]
            },
            "post": {
                "summary": "Create a new user game",
                "operationId": "CreateUserGames",
                "responses": {
                    "201": {
                        "description": "Returns user game that has been created",
                        "schema": {
                            "$ref": "#/definitions/postUserGamesResponse"
                        }
                    },
                    "400": {
                        "description": "Bad request",
                        "schema": {
                            "$ref": "#/definitions/badRequestResponse"
                        }
                    },
                    "500": {
                        "description": "Internal server error",
                        "schema": {
                            "$ref": "#/definitions/generalErrorResponse"
                        }
                    }
                },
                "tags": [
                    "User Game"
                ],
                "parameters": [
                    {
                        "name": "body",
                        "in": "body",
                        "description": "Create user game",
                        "required": true,
                        "schema": {
                            "$ref": "#/definitions/postUserGamesRequest"
                        }
                    }
                ]
            }
        },
        "/user_game/{id}": {
            "get": {
                "summary": "Get user game by id",
                "operationId": "GetUserGame",
                "responses": {
                    "200": {
                        "description": "Returns a user game",
                        "schema": {
                            "$ref": "#/definitions/getUserGameResponse"
                        }
                    },
                    "400": {
                        "description": "Bad request",
                        "schema": {
                            "$ref": "#/definitions/badRequestResponse"
                        }
                    },
                    "404": {
                        "description": "User game not found",
                        "schema": {
                            "$ref": "#/definitions/generalErrorResponse"
                        }
                    },
                    "500": {
                        "description": "Internal server error",
                        "schema": {
                            "$ref": "#/definitions/generalErrorResponse"
                        }
                    }
                },
                "parameters": [
                    {
                        "name": "id",
                        "in": "path",
                        "description": "User game id",
                        "required": true,
                        "type": "integer"
                    }
                ],
                "tags": [
                    "User Game"
                ]
            },
            "patch": {
                "summary": "Update user game by id",
                "operationId": "UpdateUserGame",
                "security": [
                    {
                        "jwt": []
                    }
                ],
                "responses": {
                    "200": {
                        "description": "Returns before after user game field that has been updated",
                        "schema": {
                            "$ref": "#/definitions/patchUserGameResponse"
                        }
                    },
                    "400": {
                        "description": "Bad request",
                        "schema": {
                            "$ref": "#/definitions/badRequestResponse"
                        }
                    },
                    "401": {
                        "description": "Unauthorized",
                        "schema": {
                            "$ref": "#/definitions/generalErrorResponse"
                        }
                    },
                    "403": {
                        "description": "Forbidden",
                        "schema": {
                            "$ref": "#/definitions/generalErrorResponse"
                        }
                    },
                    "404": {
                        "description": "User game not found",
                        "schema": {
                            "$ref": "#/definitions/generalErrorResponse"
                        }
                    },
                    "500": {
                        "description": "Internal server error",
                        "schema": {
                            "$ref": "#/definitions/generalErrorResponse"
                        }
                    }
                },
                "tags": [
                    "User Game"
                ],
                "parameters": [
                    {
                        "name": "id",
                        "in": "path",
                        "description": "User game id",
                        "required": true,
                        "type": "integer"
                    },
                    {
                        "name": "body",
                        "in": "body",
                        "description": "Update user game",
                        "required": true,
                        "schema": {
                            "$ref": "#/definitions/patchUserGameRequest"
                        }
                    }
                ]
            },
            "delete": {
                "summary": "Delete user game by id",
                "operationId": "DeleteUserGame",
                "security": [
                    {
                        "jwt": []
                    }
                ],
                "responses": {
                    "200": {
                        "description": "Returns user game that has been deleted",
                        "schema": {
                            "$ref": "#/definitions/deleteUserGameResponse"
                        }
                    },
                    "400": {
                        "description": "Bad request",
                        "schema": {
                            "$ref": "#/definitions/badRequestResponse"
                        }
                    },
                    "401": {
                        "description": "Unauthorized",
                        "schema": {
                            "$ref": "#/definitions/generalErrorResponse"
                        }
                    },
                    "403": {
                        "description": "Forbidden",
                        "schema": {
                            "$ref": "#/definitions/generalErrorResponse"
                        }
                    },
                    "404": {
                        "description": "User game not found",
                        "schema": {
                            "$ref": "#/definitions/generalErrorResponse"
                        }
                    },
                    "500": {
                        "description": "Internal server error",
                        "schema": {
                            "$ref": "#/definitions/generalErrorResponse"
                        }
                    }
                },
                "tags": [
                    "User Game"
                ],
                "parameters": [
                    {
                        "name": "id",
                        "in": "path",
                        "description": "User game id",
                        "required": true,
                        "type": "integer"
                    }
                ]
            }
        },
        "/user_games/biodatas": {
            "get": {
                "summary": "Get all user game biodatas",
                "operationId": "GetUserGameBiodatas",
                "responses": {
                    "200": {
                        "description": "Returns a list of user game biodatas",
                        "schema": {
                            "$ref": "#/definitions/getUserGameBiodatasResponse"
                        }
                    },
                    "500": {
                        "description": "Internal server error",
                        "schema": {
                            "$ref": "#/definitions/generalErrorResponse"
                        }
                    }
                },
                "tags": [
                    "User Game Biodata"
                ]
            },
            "post": {
                "summary": "Create a new user game biodata",
                "operationId": "CreateUserGameBiodatas",
                "security": [
                    {
                        "jwt": []
                    }
                ],
                "responses": {
                    "201": {
                        "description": "Returns user game biodata that has been created",
                        "schema": {
                            "$ref": "#/definitions/postUserGameBiodatasResponse"
                        }
                    },
                    "400": {
                        "description": "Bad request",
                        "schema": {
                            "$ref": "#/definitions/badRequestResponse"
                        }
                    },
                    "401": {
                        "description": "Unauthorized",
                        "schema": {
                            "$ref": "#/definitions/generalErrorResponse"
                        }
                    },
                    "403": {
                        "description": "Forbidden",
                        "schema": {
                            "$ref": "#/definitions/generalErrorResponse"
                        }
                    },
                    "500": {
                        "description": "Internal server error",
                        "schema": {
                            "$ref": "#/definitions/generalErrorResponse"
                        }
                    }
                },
                "tags": [
                    "User Game Biodata"
                ],
                "parameters": [
                    {
                        "name": "email",
                        "in": "formData",
                        "required": true,
                        "type": "string",
                        "format": "email"
                    },
                    {
                        "name": "firstname",
                        "in": "formData",
                        "required": true,
                        "type": "string",
                        "format": "string"
                    },
                    {
                        "name": "lastname",
                        "in": "formData",
                        "required": true,
                        "type": "string",
                        "format": "string"
                    },
                    {
                        "name": "profilePicture",
                        "in": "formData",
                        "required": true,
                        "type": "file"
                    },
                    {
                        "name": "country",
                        "in": "formData",
                        "required": true,
                        "type": "string",
                        "format": "string"
                    },
                    {
                        "name": "age",
                        "in": "formData",
                        "required": true,
                        "type": "integer",
                        "format": "int32",
                        "minimum": 1
                    },
                    {
                        "name": "userGameId",
                        "in": "formData",
                        "required": true,
                        "type": "integer",
                        "format": "int32",
                        "minimum": 1
                    }
                ]
            }
        },
        "/user_game/biodata/{id}": {
            "get": {
                "summary": "Get user game biodata by id",
                "operationId": "GetUserGameBiodata",
                "responses": {
                    "200": {
                        "description": "Returns a user game biodata",
                        "schema": {
                            "$ref": "#/definitions/getUserGameBiodataResponse"
                        }
                    },
                    "400": {
                        "description": "Bad request",
                        "schema": {
                            "$ref": "#/definitions/badRequestResponse"
                        }
                    },
                    "404": {
                        "description": "User game biodata not found",
                        "schema": {
                            "$ref": "#/definitions/generalErrorResponse"
                        }
                    },
                    "500": {
                        "description": "Internal server error",
                        "schema": {
                            "$ref": "#/definitions/generalErrorResponse"
                        }
                    }
                },
                "parameters": [
                    {
                        "name": "id",
                        "in": "path",
                        "description": "User game biodata id",
                        "required": true,
                        "type": "integer"
                    }
                ],
                "tags": [
                    "User Game Biodata"
                ]
            },
            "patch": {
                "summary": "Update user game biodata by id",
                "operationId": "UpdateUserGameBiodata",
                "security": [
                    {
                        "jwt": []
                    }
                ],
                "responses": {
                    "200": {
                        "description": "Returns before after user game biodata field that has been updated",
                        "schema": {
                            "$ref": "#/definitions/patchUserGameBiodataResponse"
                        }
                    },
                    "400": {
                        "description": "Bad request",
                        "schema": {
                            "$ref": "#/definitions/badRequestResponse"
                        }
                    },
                    "401": {
                        "description": "Unauthorized",
                        "schema": {
                            "$ref": "#/definitions/generalErrorResponse"
                        }
                    },
                    "403": {
                        "description": "Forbidden",
                        "schema": {
                            "$ref": "#/definitions/generalErrorResponse"
                        }
                    },
                    "404": {
                        "description": "User game biodata not found",
                        "schema": {
                            "$ref": "#/definitions/generalErrorResponse"
                        }
                    },
                    "500": {
                        "description": "Internal server error",
                        "schema": {
                            "$ref": "#/definitions/generalErrorResponse"
                        }
                    }
                },
                "tags": [
                    "User Game Biodata"
                ],
                "parameters": [
                    {
                        "name": "id",
                        "in": "path",
                        "description": "User game biodata id",
                        "required": true,
                        "type": "integer"
                    },
                    {
                        "name": "email",
                        "in": "formData",
                        "required": false,
                        "type": "string",
                        "format": "email"
                    },
                    {
                        "name": "firstname",
                        "in": "formData",
                        "required": false,
                        "type": "string",
                        "format": "string"
                    },
                    {
                        "name": "lastname",
                        "in": "formData",
                        "required": false,
                        "type": "string",
                        "format": "string"
                    },
                    {
                        "name": "profilePicture",
                        "in": "formData",
                        "required": false,
                        "type": "file"
                    },
                    {
                        "name": "country",
                        "in": "formData",
                        "required": false,
                        "type": "string",
                        "format": "string"
                    },
                    {
                        "name": "age",
                        "in": "formData",
                        "required": false,
                        "type": "integer",
                        "format": "int32",
                        "minimum": 1
                    },
                    {
                        "name": "userGameId",
                        "in": "formData",
                        "type": "integer",
                        "format": "int32",
                        "minimum": 1
                    }
                ]
            },
            "delete": {
                "summary": "Delete user game biodata by id",
                "operationId": "DeleteUserGameBiodata",
                "security": [
                    {
                        "jwt": []
                    }
                ],
                "responses": {
                    "200": {
                        "description": "Returns user game biodata that has been deleted",
                        "schema": {
                            "$ref": "#/definitions/deleteUserGameBiodataResponse"
                        }
                    },
                    "400": {
                        "description": "Bad request",
                        "schema": {
                            "$ref": "#/definitions/badRequestResponse"
                        }
                    },
                    "401": {
                        "description": "Unauthorized",
                        "schema": {
                            "$ref": "#/definitions/generalErrorResponse"
                        }
                    },
                    "403": {
                        "description": "Forbidden",
                        "schema": {
                            "$ref": "#/definitions/generalErrorResponse"
                        }
                    },
                    "404": {
                        "description": "User game biodata not found",
                        "schema": {
                            "$ref": "#/definitions/generalErrorResponse"
                        }
                    },
                    "500": {
                        "description": "Internal server error",
                        "schema": {
                            "$ref": "#/definitions/generalErrorResponse"
                        }
                    }
                },
                "tags": [
                    "User Game Biodata"
                ],
                "parameters": [
                    {
                        "name": "id",
                        "in": "path",
                        "description": "User game biodata id",
                        "required": true,
                        "type": "integer"
                    }
                ]
            }
        },
        "/user_game/{userGameId}/biodata": {
            "get": {
                "summary": "Get user game biodata by user game id",
                "operationId": "GetUserGameBiodataByUserGameId",
                "responses": {
                    "200": {
                        "description": "Returns a user game biodata by user game id",
                        "schema": {
                            "$ref": "#/definitions/getUserGameBiodataByUserGameIdResponse"
                        }
                    },
                    "400": {
                        "description": "Bad request",
                        "schema": {
                            "$ref": "#/definitions/badRequestResponse"
                        }
                    },
                    "404": {
                        "description": "User game biodata not found",
                        "schema": {
                            "$ref": "#/definitions/generalErrorResponse"
                        }
                    },
                    "500": {
                        "description": "Internal server error",
                        "schema": {
                            "$ref": "#/definitions/generalErrorResponse"
                        }
                    }
                },
                "parameters": [
                    {
                        "name": "userGameId",
                        "in": "path",
                        "description": "User game id",
                        "required": true,
                        "type": "integer"
                    }
                ],
                "tags": [
                    "User Game Biodata"
                ]
            }
        },
        "/user_games/histories": {
            "get": {
                "summary": "Get all user game histories",
                "operationId": "GetUserGameHistories",
                "responses": {
                    "200": {
                        "description": "Returns a list of user game histories",
                        "schema": {
                            "$ref": "#/definitions/getUserGameHistoriesResponse"
                        }
                    },
                    "500": {
                        "description": "Internal server error",
                        "schema": {
                            "$ref": "#/definitions/generalErrorResponse"
                        }
                    }
                },
                "tags": [
                    "User Game History"
                ]
            },
            "post": {
                "summary": "Create a new user game history",
                "operationId": "CreateUserGameHistories",
                "security": [
                    {
                        "jwt": []
                    }
                ],
                "responses": {
                    "201": {
                        "description": "Returns user game history that has been created",
                        "schema": {
                            "$ref": "#/definitions/postUserGameHistoriesResponse"
                        }
                    },
                    "400": {
                        "description": "Bad request",
                        "schema": {
                            "$ref": "#/definitions/badRequestResponse"
                        }
                    },
                    "401": {
                        "description": "Unauthorized",
                        "schema": {
                            "$ref": "#/definitions/generalErrorResponse"
                        }
                    },
                    "403": {
                        "description": "Forbidden",
                        "schema": {
                            "$ref": "#/definitions/generalErrorResponse"
                        }
                    },
                    "500": {
                        "description": "Internal server error",
                        "schema": {
                            "$ref": "#/definitions/generalErrorResponse"
                        }
                    }
                },
                "tags": [
                    "User Game History"
                ],
                "parameters": [
                    {
                        "name": "title",
                        "in": "formData",
                        "required": true,
                        "type": "string",
                        "format": "string"
                    },
                    {
                        "name": "publisher",
                        "in": "formData",
                        "required": true,
                        "type": "string",
                        "format": "string"
                    },
                    {
                        "name": "cover",
                        "in": "formData",
                        "required": false,
                        "type": "file"
                    },
                    {
                        "name": "score",
                        "in": "formData",
                        "required": true,
                        "type": "integer",
                        "format": "int32",
                        "minimum": 1,
                        "maximum": 100
                    },
                    {
                        "name": "userGameId",
                        "in": "formData",
                        "required": true,
                        "type": "integer",
                        "format": "int32",
                        "minimum": 1
                    }
                ]
            }
        },
        "/user_game/history/{id}": {
            "get": {
                "summary": "Get user game history by id",
                "operationId": "GetUserGameHistory",
                "responses": {
                    "200": {
                        "description": "Returns a user game history",
                        "schema": {
                            "$ref": "#/definitions/getUserGameHistoryResponse"
                        }
                    },
                    "400": {
                        "description": "Bad request",
                        "schema": {
                            "$ref": "#/definitions/badRequestResponse"
                        }
                    },
                    "404": {
                        "description": "User game history not found",
                        "schema": {
                            "$ref": "#/definitions/generalErrorResponse"
                        }
                    },
                    "500": {
                        "description": "Internal server error",
                        "schema": {
                            "$ref": "#/definitions/generalErrorResponse"
                        }
                    }
                },
                "parameters": [
                    {
                        "name": "id",
                        "in": "path",
                        "description": "User game history id",
                        "required": true,
                        "type": "integer"
                    }
                ],
                "tags": [
                    "User Game History"
                ]
            },
            "patch": {
                "summary": "Update user game history by id",
                "operationId": "UpdateUserGameHistory",
                "security": [
                    {
                        "jwt": []
                    }
                ],
                "responses": {
                    "200": {
                        "description": "Returns before after user game history field that has been updated",
                        "schema": {
                            "$ref": "#/definitions/patchUserGameHistoryResponse"
                        }
                    },
                    "400": {
                        "description": "Bad request",
                        "schema": {
                            "$ref": "#/definitions/badRequestResponse"
                        }
                    },
                    "401": {
                        "description": "Unauthorized",
                        "schema": {
                            "$ref": "#/definitions/generalErrorResponse"
                        }
                    },
                    "403": {
                        "description": "Forbidden",
                        "schema": {
                            "$ref": "#/definitions/generalErrorResponse"
                        }
                    },
                    "404": {
                        "description": "User game history not found",
                        "schema": {
                            "$ref": "#/definitions/generalErrorResponse"
                        }
                    },
                    "500": {
                        "description": "Internal server error",
                        "schema": {
                            "$ref": "#/definitions/generalErrorResponse"
                        }
                    }
                },
                "tags": [
                    "User Game History"
                ],
                "parameters": [
                    {
                        "name": "id",
                        "in": "path",
                        "description": "User game history id",
                        "required": false,
                        "type": "integer"
                    },
                    {
                        "name": "title",
                        "in": "formData",
                        "required": false,
                        "type": "string",
                        "format": "string"
                    },
                    {
                        "name": "publisher",
                        "in": "formData",
                        "required": false,
                        "type": "string",
                        "format": "string"
                    },
                    {
                        "name": "cover",
                        "in": "formData",
                        "required": false,
                        "type": "file"
                    },
                    {
                        "name": "score",
                        "in": "formData",
                        "required": false,
                        "type": "integer",
                        "format": "int32",
                        "minimum": 1,
                        "maximum": 100
                    },
                    {
                        "name": "userGameId",
                        "in": "formData",
                        "required": false,
                        "type": "integer",
                        "format": "int32",
                        "minimum": 1
                    }
                ]
            },
            "delete": {
                "summary": "Delete user game history by id",
                "operationId": "DeleteUserGameHistory",
                "security": [
                    {
                        "jwt": []
                    }
                ],
                "responses": {
                    "200": {
                        "description": "Returns user game history that has been deleted",
                        "schema": {
                            "$ref": "#/definitions/deleteUserGameHistoryResponse"
                        }
                    },
                    "400": {
                        "description": "Bad request",
                        "schema": {
                            "$ref": "#/definitions/badRequestResponse"
                        }
                    },
                    "401": {
                        "description": "Unauthorized",
                        "schema": {
                            "$ref": "#/definitions/generalErrorResponse"
                        }
                    },
                    "403": {
                        "description": "Forbidden",
                        "schema": {
                            "$ref": "#/definitions/generalErrorResponse"
                        }
                    },
                    "404": {
                        "description": "User game history not found",
                        "schema": {
                            "$ref": "#/definitions/generalErrorResponse"
                        }
                    },
                    "500": {
                        "description": "Internal server error",
                        "schema": {
                            "$ref": "#/definitions/generalErrorResponse"
                        }
                    }
                },
                "tags": [
                    "User Game History"
                ],
                "parameters": [
                    {
                        "name": "id",
                        "in": "path",
                        "description": "User game history id",
                        "required": true,
                        "type": "integer"
                    }
                ]
            }
        },
        "/user_game/{userGameId}/histories": {
            "get": {
                "summary": "Get user game history by user game id",
                "operationId": "GetUserGameHistoryByUserGameId",
                "responses": {
                    "200": {
                        "description": "Returns a user game history by user game id",
                        "schema": {
                            "$ref": "#/definitions/getUserGameHistoryByUserGameIdResponse"
                        }
                    },
                    "400": {
                        "description": "Bad request",
                        "schema": {
                            "$ref": "#/definitions/badRequestResponse"
                        }
                    },
                    "404": {
                        "description": "User game history not found",
                        "schema": {
                            "$ref": "#/definitions/generalErrorResponse"
                        }
                    },
                    "500": {
                        "description": "Internal server error",
                        "schema": {
                            "$ref": "#/definitions/generalErrorResponse"
                        }
                    }
                },
                "parameters": [
                    {
                        "name": "userGameId",
                        "in": "path",
                        "description": "User game id",
                        "required": true,
                        "type": "integer"
                    }
                ],
                "tags": [
                    "User Game History"
                ]
            }
        }
    },
    "definitions": {
        "registerResponse": {
            "type": "object",
            "properties": {
                "statusCode": {
                    "type": "integer",
                    "format": "int32",
                    "default": 201
                },
                "message": {
                    "type": "string",
                    "format": "string",
                    "default": "Registered successfully"
                },
                "data": {
                    "$ref": "#/definitions/userGame"
                }
            }
        },
        "loginResponse": {
            "type": "object",
            "properties": {
                "statusCode": {
                    "type": "integer",
                    "format": "int32",
                    "default": 200
                },
                "message": {
                    "type": "string",
                    "format": "string",
                    "default": "Logged in successfully"
                },
                "token": {
                    "type": "string",
                    "format": "string"
                }
            }
        },
        "userGame": {
            "type": "object",
            "properties": {
                "id": {
                    "type": "integer",
                    "format": "int64"
                },
                "username": {
                    "type": "string",
                    "format": "string"
                },
                "password": {
                    "type": "string",
                    "format": "string"
                },
                "createdAt": {
                    "type": "string",
                    "format": "date-time"
                },
                "updatedAt": {
                    "type": "string",
                    "format": "date-time"
                }
            }
        },
        "userGameInclude": {
            "type": "object",
            "properties": {
                "id": {
                    "type": "integer",
                    "format": "int32"
                },
                "username": {
                    "type": "string",
                    "format": "string"
                },
                "password": {
                    "type": "string",
                    "format": "string"
                },
                "createdAt": {
                    "type": "string",
                    "format": "date-time"
                },
                "updatedAt": {
                    "type": "string",
                    "format": "date-time"
                },
                "UserGameBiodatum": {
                    "$ref": "#/definitions/userGameBiodata"
                },
                "UserGameHistories": {
                    "type": "array",
                    "items": {
                        "$ref": "#/definitions/userGameHistory"
                    }
                }
            }
        },
        "userGameBiodata": {
            "type": "object",
            "properties": {
                "id": {
                    "type": "integer",
                    "format": "int32"
                },
                "email": {
                    "type": "string",
                    "format": "string"
                },
                "firstname": {
                    "type": "string",
                    "format": "string"
                },
                "lastname": {
                    "type": "string",
                    "format": "string"
                },
                "profilePicture": {
                    "type": "string",
                    "format": "string"
                },
                "country": {
                    "type": "string",
                    "format": "string"
                },
                "age": {
                    "type": "integer",
                    "format": "int32"
                },
                "createdAt": {
                    "type": "string",
                    "format": "date-time"
                },
                "updatedAt": {
                    "type": "string",
                    "format": "date-time"
                },
                "userGameId": {
                    "type": "integer",
                    "format": "int32"
                }
            }
        },
        "userGameBiodataInclude": {
            "type": "object",
            "properties": {
                "id": {
                    "type": "integer",
                    "format": "int32"
                },
                "email": {
                    "type": "string",
                    "format": "string"
                },
                "firstname": {
                    "type": "string",
                    "format": "string"
                },
                "lastname": {
                    "type": "string",
                    "format": "string"
                },
                "profilePicture": {
                    "type": "string",
                    "format": "string"
                },
                "country": {
                    "type": "string",
                    "format": "string"
                },
                "age": {
                    "type": "integer",
                    "format": "int32"
                },
                "createdAt": {
                    "type": "string",
                    "format": "date-time"
                },
                "updatedAt": {
                    "type": "string",
                    "format": "date-time"
                },
                "userGameId": {
                    "type": "integer",
                    "format": "int32"
                },
                "UserGame": {
                    "$ref": "#/definitions/userGame"
                }
            }
        },
        "userGameHistory": {
            "type": "object",
            "properties": {
                "id": {
                    "type": "integer",
                    "format": "int32"
                },
                "title": {
                    "type": "string",
                    "format": "string"
                },
                "publisher": {
                    "type": "string",
                    "format": "string"
                },
                "cover": {
                    "type": "string",
                    "format": "string"
                },
                "lastPlayed": {
                    "type": "string",
                    "format": "date-time"
                },
                "score": {
                    "type": "number",
                    "format": "int32"
                },
                "createdAt": {
                    "type": "string",
                    "format": "date-time"
                },
                "updatedAt": {
                    "type": "string",
                    "format": "date-time"
                },
                "userGameId": {
                    "type": "integer",
                    "format": "int32"
                }
            }
        },
        "userGameHistoryInclude": {
            "type": "object",
            "properties": {
                "id": {
                    "type": "integer",
                    "format": "int32"
                },
                "title": {
                    "type": "string",
                    "format": "string"
                },
                "publisher": {
                    "type": "string",
                    "format": "string"
                },
                "cover": {
                    "type": "string",
                    "format": "string"
                },
                "lastPlayed": {
                    "type": "string",
                    "format": "date-time"
                },
                "score": {
                    "type": "number",
                    "format": "int32"
                },
                "createdAt": {
                    "type": "string",
                    "format": "date-time"
                },
                "updatedAt": {
                    "type": "string",
                    "format": "date-time"
                },
                "userGameId": {
                    "type": "integer",
                    "format": "int32"
                },
                "UserGame": {
                    "$ref": "#/definitions/userGame"
                }
            }
        },
        "getUserGamesResponse": {
            "type": "object",
            "properties": {
                "statusCode": {
                    "type": "integer",
                    "format": "int32",
                    "default": 200
                },
                "message": {
                    "type": "string",
                    "format": "string",
                    "default": "OK"
                },
                "count": {
                    "type": "integer",
                    "format": "int32"
                },
                "data": {
                    "type": "array",
                    "items": {
                        "$ref": "#/definitions/userGameInclude"
                    }
                }
            }
        },
        "postUserGamesRequest": {
            "type": "object",
            "properties": {
                "username": {
                    "type": "string",
                    "format": "string"
                },
                "password": {
                    "type": "string",
                    "format": "string"
                }
            }
        },
        "postUserGamesResponse": {
            "type": "object",
            "properties": {
                "statusCode": {
                    "type": "integer",
                    "format": "int32",
                    "default": 201
                },
                "message": {
                    "type": "string",
                    "format": "string",
                    "default": "UserGame created successfully"
                },
                "data": {
                    "$ref": "#/definitions/userGame"
                }
            }
        },
        "getUserGameResponse": {
            "type": "object",
            "properties": {
                "statusCode": {
                    "type": "integer",
                    "format": "int32",
                    "default": 200
                },
                "message": {
                    "type": "string",
                    "format": "string",
                    "default": "OK"
                },
                "data": {
                    "$ref": "#/definitions/userGameInclude"
                }
            }
        },
        "patchUserGameRequest": {
            "type": "object",
            "properties": {
                "username": {
                    "type": "string",
                    "format": "string",
                    "required": false
                },
                "password": {
                    "type": "string",
                    "format": "string",
                    "required": false
                }
            }
        },
        "patchUserGameResponse": {
            "type": "object",
            "properties": {
                "statusCode": {
                    "type": "integer",
                    "format": "int32",
                    "default": 200
                },
                "message": {
                    "type": "string",
                    "format": "string",
                    "default": "UserGame updated successfully"
                },
                "data": {
                    "type": "object",
                    "properties": {
                        "before": {
                            "$ref": "#/definitions/patchUserGameRequest"
                        },
                        "after": {
                            "$ref": "#/definitions/patchUserGameRequest"
                        }
                    }
                }
            }
        },
        "deleteUserGameResponse": {
            "type": "object",
            "properties": {
                "statusCode": {
                    "type": "integer",
                    "format": "int32",
                    "default": 200
                },
                "message": {
                    "type": "string",
                    "format": "string",
                    "default": "UserGame deleted successfully"
                },
                "data": {
                    "$ref": "#/definitions/userGame"
                }
            }
        },
        "getUserGameBiodatasResponse": {
            "type": "object",
            "properties": {
                "statusCode": {
                    "type": "integer",
                    "format": "int32",
                    "default": 200
                },
                "message": {
                    "type": "string",
                    "format": "string",
                    "default": "OK"
                },
                "count": {
                    "type": "integer",
                    "format": "int32"
                },
                "data": {
                    "type": "array",
                    "items": {
                        "$ref": "#/definitions/userGameBiodataInclude"
                    }
                }
            }
        },
        "postUserGameBiodatasRequest": {
            "type": "object",
            "properties": {
                "email": {
                    "type": "string",
                    "format": "string"
                },
                "firstname": {
                    "type": "string",
                    "format": "string"
                },
                "lastname": {
                    "type": "string",
                    "format": "string"
                },
                "country": {
                    "type": "string",
                    "format": "string"
                },
                "age": {
                    "type": "integer",
                    "format": "int32"
                },
                "userGameId": {
                    "type": "integer",
                    "format": "int32"
                }
            }
        },
        "postUserGameBiodatasResponse": {
            "type": "object",
            "properties": {
                "statusCode": {
                    "type": "integer",
                    "format": "int32",
                    "default": 201
                },
                "message": {
                    "type": "string",
                    "format": "string",
                    "default": "UserGameBiodata created successfully"
                },
                "data": {
                    "$ref": "#/definitions/userGameBiodata"
                }
            }
        },
        "getUserGameBiodataResponse": {
            "type": "object",
            "properties": {
                "statusCode": {
                    "type": "integer",
                    "format": "int32",
                    "default": 200
                },
                "message": {
                    "type": "string",
                    "format": "string",
                    "default": "OK"
                },
                "data": {
                    "$ref": "#/definitions/userGameBiodataInclude"
                }
            }
        },
        "patchUserGameBiodataRequest": {
            "type": "object",
            "properties": {
                "email": {
                    "type": "string",
                    "format": "string",
                    "required": false
                },
                "firstname": {
                    "type": "string",
                    "format": "string",
                    "required": false
                },
                "lastname": {
                    "type": "string",
                    "format": "string",
                    "required": false
                },
                "profilePicture": {
                    "type": "string",
                    "format": "string",
                    "required": false
                },
                "country": {
                    "type": "string",
                    "format": "string",
                    "required": false
                },
                "age": {
                    "type": "integer",
                    "format": "int32",
                    "required": false
                },
                "userGameId": {
                    "type": "integer",
                    "format": "int32",
                    "required": false
                }
            }
        },
        "patchUserGameBiodataResponse": {
            "type": "object",
            "properties": {
                "statusCode": {
                    "type": "integer",
                    "format": "int32",
                    "default": 200
                },
                "message": {
                    "type": "string",
                    "format": "string",
                    "default": "UserGameBiodata updated successfully"
                },
                "data": {
                    "type": "object",
                    "properties": {
                        "before": {
                            "$ref": "#/definitions/patchUserGameBiodataRequest"
                        },
                        "after": {
                            "$ref": "#/definitions/patchUserGameBiodataRequest"
                        }
                    }
                }
            }
        },
        "deleteUserGameBiodataResponse": {
            "type": "object",
            "properties": {
                "statusCode": {
                    "type": "integer",
                    "format": "int32",
                    "default": 200
                },
                "message": {
                    "type": "string",
                    "format": "string",
                    "default": "UserGameBiodata deleted successfully"
                },
                "data": {
                    "$ref": "#/definitions/userGameBiodata"
                }
            }
        },
        "getUserGameBiodataByUserGameIdResponse": {
            "type": "object",
            "properties": {
                "statusCode": {
                    "type": "integer",
                    "format": "int32",
                    "default": 200
                },
                "message": {
                    "type": "string",
                    "format": "string",
                    "default": "OK"
                },
                "data": {
                    "type": "array",
                    "items": {
                        "$ref": "#/definitions/userGameBiodata"
                    }
                }
            }
        },
        "getUserGameHistoriesResponse": {
            "type": "object",
            "properties": {
                "statusCode": {
                    "type": "integer",
                    "format": "int32",
                    "default": 200
                },
                "message": {
                    "type": "string",
                    "format": "string",
                    "default": "OK"
                },
                "count": {
                    "type": "integer",
                    "format": "int32"
                },
                "data": {
                    "type": "array",
                    "items": {
                        "$ref": "#/definitions/userGameHistoryInclude"
                    }
                }
            }
        },
        "postUserGameHistoriesRequest": {
            "type": "object",
            "properties": {
                "title": {
                    "type": "string",
                    "format": "string"
                },
                "publisher": {
                    "type": "string",
                    "format": "string"
                },
                "score": {
                    "type": "number",
                    "format": "int32"
                },
                "userGameId": {
                    "type": "integer",
                    "format": "int32"
                }
            }
        },
        "postUserGameHistoriesResponse": {
            "type": "object",
            "properties": {
                "statusCode": {
                    "type": "integer",
                    "format": "int32",
                    "default": 201
                },
                "message": {
                    "type": "string",
                    "format": "string",
                    "default": "UserGameHistory created successfully"
                },
                "data": {
                    "$ref": "#/definitions/userGameHistory"
                }
            }
        },
        "getUserGameHistoryResponse": {
            "type": "object",
            "properties": {
                "statusCode": {
                    "type": "integer",
                    "format": "int32",
                    "default": 200
                },
                "message": {
                    "type": "string",
                    "format": "string",
                    "default": "OK"
                },
                "data": {
                    "$ref": "#/definitions/userGameHistoryInclude"
                }
            }
        },
        "patchUserGameHistoryRequest": {
            "type": "object",
            "properties": {
                "title": {
                    "type": "string",
                    "format": "string",
                    "required": false
                },
                "publisher": {
                    "type": "string",
                    "format": "string",
                    "required": false
                },
                "cover": {
                    "type": "string",
                    "format": "string",
                    "required": false
                },
                "score": {
                    "type": "number",
                    "format": "int32",
                    "required": false
                },
                "userGameId": {
                    "type": "integer",
                    "format": "int32",
                    "required": false
                }
            }
        },
        "patchUserGameHistoryResponse": {
            "type": "object",
            "properties": {
                "statusCode": {
                    "type": "integer",
                    "format": "int32",
                    "default": 200
                },
                "message": {
                    "type": "string",
                    "format": "string",
                    "default": "UserGameHistory updated successfully"
                },
                "data": {
                    "type": "object",
                    "properties": {
                        "before": {
                            "$ref": "#/definitions/patchUserGameHistoryRequest"
                        },
                        "after": {
                            "$ref": "#/definitions/patchUserGameHistoryRequest"
                        }
                    }
                }
            }
        },
        "deleteUserGameHistoryResponse": {
            "type": "object",
            "properties": {
                "statusCode": {
                    "type": "integer",
                    "format": "int32",
                    "default": 200
                },
                "message": {
                    "type": "string",
                    "format": "string",
                    "default": "UserGameHistory deleted successfully"
                },
                "data": {
                    "$ref": "#/definitions/userGameHistory"
                }
            }
        },
        "getUserGameHistoryByUserGameIdResponse": {
            "type": "object",
            "properties": {
                "statusCode": {
                    "type": "integer",
                    "format": "int32",
                    "default": 200
                },
                "message": {
                    "type": "string",
                    "format": "string",
                    "default": "OK"
                },
                "data": {
                    "type": "array",
                    "items": {
                        "$ref": "#/definitions/userGameHistory"
                    }
                }
            }
        },
        "generalErrorResponse": {
            "type": "object",
            "properties": {
                "statusCode": {
                    "type": "integer",
                    "format": "int32"
                },
                "message": {
                    "type": "string",
                    "format": "string"
                }
            }
        },
        "badRequestResponse": {
            "type": "object",
            "properties": {
                "statusCode": {
                    "type": "integer",
                    "format": "int32",
                    "default": 400
                },
                "errors": {
                    "type": "array",
                    "items": {
                        "type": "object",
                        "properties": {
                            "value": {
                                "type": "string",
                                "format": "string"
                            },
                            "msg": {
                                "type": "string",
                                "format": "string"
                            },
                            "param": {
                                "type": "string",
                                "format": "string"
                            },
                            "location": {
                                "type": "string",
                                "format": "string"
                            }
                        }
                    }
                }
            }
        }
    }
}
